{
  "kind": "collectionType",
  "collectionName": "farmers",
  "info": {
    "name": "Farmer"
  },
  "options": {
    "increments": true,
    "timestamps": true
  },
  "attributes": {
    "name": {
      "type": "string"
    },
    "postal": {
      "type": "integer"
    },
    "link": {
      "type": "string"
    },
    "description": {
      "type": "richtext"
    },
    "image": {
      "model": "file",
      "via": "related",
      "allowedTypes": [
        "images",
        "files",
        "videos"
      ],
      "plugin": "upload",
      "required": false
    },
    "postalName": {
      "type": "string"
    },
    "farmerIngredient": {
      "type": "component",
      "repeatable": true,
      "component": "farmer-ingredient.farmer-ingredient"
    },
    "farmer_categories": {
      "collection": "farmer-category",
      "via": "farmers"
    },
    "horaire": {
      "type": "component",
      "repeatable": true,
      "component": "horaire.horaire"
    },
    "address": {
      "type": "string"
    }
  }
}
