{
  "collectionName": "components_farmer_ingredient_farmer_ingredients",
  "info": {
    "name": "farmerIngredient",
    "icon": "apple-alt"
  },
  "options": {},
  "attributes": {
    "name": {
      "type": "string"
    },
    "stock": {
      "type": "boolean"
    },
    "price": {
      "type": "float"
    },
    "unity": {
      "type": "string"
    },
    "quantity": {
      "type": "float"
    }
  }
}
