{
  "kind": "collectionType",
  "collectionName": "farmer_categories",
  "info": {
    "name": "farmerCategory"
  },
  "options": {
    "increments": true,
    "timestamps": true
  },
  "attributes": {
    "name": {
      "type": "string"
    },
    "icon": {
      "model": "file",
      "via": "related",
      "allowedTypes": [
        "images",
        "files",
        "videos"
      ],
      "plugin": "upload",
      "required": false
    },
    "farmers": {
      "via": "farmer_categories",
      "collection": "farmer",
      "dominant": true
    },
    "label": {
      "type": "string"
    }
  }
}
