{
  "kind": "collectionType",
  "collectionName": "recipes",
  "info": {
    "name": "Recipe"
  },
  "options": {
    "increments": true,
    "timestamps": true
  },
  "attributes": {
    "name": {
      "type": "string"
    },
    "image": {
      "model": "file",
      "via": "related",
      "allowedTypes": [
        "images",
        "files",
        "videos"
      ],
      "plugin": "upload",
      "required": false
    },
    "description": {
      "type": "richtext"
    },
    "ingredients": {
      "type": "component",
      "repeatable": true,
      "component": "ingredients.ingredients"
    },
    "categories": {
      "collection": "category",
      "via": "recipes",
      "dominant": true
    },
    "level": {
      "type": "enumeration",
      "enum": [
        "facile",
        "moyen",
        "difficile"
      ]
    },
    "time": {
      "type": "integer"
    },
    "person": {
      "type": "integer"
    },
    "steps": {
      "type": "component",
      "repeatable": true,
      "component": "steps.steps"
    },
    "user": {
      "plugin": "users-permissions",
      "model": "user",
      "via": "recipes"
    }
  }
}
